<?xml version="1.0" encoding="utf-8"?>
<!-- Generator: Adobe Illustrator 22.0.1, SVG Export Plug-In . SVG Version: 6.00 Build 0)  -->
<svg version="1.1" id="Flaggenrahmen" xmlns="http://www.w3.org/2000/svg" xmlns:xlink="http://www.w3.org/1999/xlink" x="0px"
	 y="0px" viewBox="0 0 200 230" style="enable-background:new 0 0 200 230;" xml:space="preserve">
<style type="text/css">
	.st0{clip-path:url(#SVGID_2_);}
	.st1{fill:#1E1E1E;}
	.st2{fill:#FFD200;}
	.st3{fill:#C80F2D;}
</style>
<title>RZ_HRC_Website_Icons_Laender</title>
<g id="Deutschland">
	<g>
		<g>
			<defs>
				<polygon id="SVGID_1_" points="200,172.5 200,57.5 100,0 0,57.5 0,172.5 100,230 				"/>
			</defs>
			<clipPath id="SVGID_2_">
				<use xlink:href="#SVGID_1_"  style="overflow:visible;"/>
			</clipPath>
			<g class="st0">
				<rect y="0" class="st1" width="200" height="76.7"/>
				<rect y="153.3" class="st2" width="200" height="76.7"/>
				<rect y="76.7" class="st3" width="200" height="76.7"/>
			</g>
		</g>
	</g>
</g>
</svg>
